Il file deve esistere prima di lanciare il comando:
################################################################################################
docker run -it -v ~/docker-startup/fileToMountToContainer.txt:/tmp/fileToMountToContainer alpine
################################################################################################